Project
…
#this shows 186 games have a big difference of final score

#a new table with total goals, home goals, away goals in each season
library(ggplot2)
seasondb <- pldata %>%
  group_by(Season) %>%
  summarise(totalGoalInMatch = sum(FTHG+FTAG))

#histogram of the table
hist_season_goal <- ggplot(seasondb, aes(x=Season,y=totalGoalInMatch))+geom_point()

seasondb

## # A tibble: 25 x 2
##    Season  totalGoalInMatch
##    <fct>              <int>
##  1 1993-94             1195
##  2 1994-95             1195
##  3 1995-96              988
##  4 1996-97              970
##  5 1997-98             1019
##  6 1998-99              959
##  7 1999-00             1060
##  8 2000-01              992
##  9 2001-02             1001
## 10 2002-03             1000
## # ... with 15 more rows
…
home_standing

## # A tibble: 50 x 5
##    HomeTeam        P points    GS    GC
##    <fct>       <int>  <dbl> <int> <int>
##  1 Arsenal       479   1055   992   391
##  2 Aston Villa   441    659   568   475
##  3 Barnsley       19     25    25    35
##  4 Birmingham    133    196   162   140
##  5 Blackburn     327    549   507   363
##  6 Blackpool      19     20    30    37
##  7 Bolton        247    354   319   313
##  8 Bournemouth    57     77    84    93
##  9 Bradford       38     45    46    58
## 10 Brighton       19     29    24    25
## # ... with 40 more rows

away_standing

## # A tibble: 50 x 5
##    AwayTeam        P points    GS    GC
##    <fct>       <int>  <dbl> <int> <int>
##  1 Arsenal       479    774   740   533
##  2 Aston Villa   441    490   492   671
##  3 Barnsley       19     10    12    47
##  4 Birmingham    133    105   111   220
##  5 Blackburn     327    350   352   498
##  6 Blackpool      19     19    25    41
##  7 Bolton        247    221   256   432
##  8 Bournemouth    57     55    61   102
##  9 Bradford       38     17    22    80
## 10 Brighton       19     11    10    29
## # ... with 40 more rows
…
